10.038248 node 101 |10.038248 node 14 |10.038248 node 52 |10.038248 node 19 |10.038248 node 79 |10.038248 node 100 |
rgodv->length : 5
10.098364 node 101 |10.098364 node 66 |10.098364 node 88 |10.098364 node 100 |
rgodv->length : 3
10.101658 node 101 |10.101658 node 30 |10.101658 node 69 |10.101658 node 100 |
rgodv->length : 3
10.112311 node 101 |10.112311 node 14 |10.112311 node 52 |10.112311 node 19 |10.112311 node 79 |10.112311 node 40 |10.112311 node 100 |
rgodv->length : 6
10.116737 node 101 |10.116737 node 70 |10.116737 node 100 |
rgodv->length : 2
10.120817 node 101 |10.120817 node 62 |10.120817 node 100 |
rgodv->length : 2
10.151628 node 101 |10.151628 node 66 |10.151628 node 45 |10.151628 node 100 |
rgodv->length : 3
10.169408 node 101 |10.169408 node 66 |10.169408 node 74 |10.169408 node 100 |
rgodv->length : 3
10.178940 node 101 |10.178940 node 14 |10.178940 node 52 |10.178940 node 19 |10.178940 node 79 |10.178940 node 89 |10.178940 node 100 |
rgodv->length : 6
godv->pathLen : 2
0 -> x: 124.910000 | y: 396.410000 
1 -> x: 330.643290 | y: 382.702685 
0 -> node : 100 
1 -> node : 70 
